…
## 1.2 Tibbles - the "modern dataframe"

Working with raw data can be very confusing - especially when there are
many different variables and thousands of datapoints. Tibbles try to
mitigate this confusion by condensing the data into a very neat and
clear format. Don't get me wrong: The tibble doesn't do anything to your
data - the tibble IS your data, just displayed in a way that is easier
on the eyes. Let's take a look at a "tibble" by calling the "*starwars*"
tibble (part of the dplyr-package):

```         
starwars

## # A tibble: 87 × 14
##    name     height  mass hair_color skin_color eye_color birth_year sex   gender
##    <chr>     <int> <dbl> <chr>      <chr>      <chr>          <dbl> <chr> <chr> 
##  1 Luke Sk…    172    77 blond      fair       blue            19   male  mascu…
##  2 C-3PO       167    75 <NA>       gold       yellow         112   none  mascu…
##  3 R2-D2        96    32 <NA>       white, bl… red             33   none  mascu…
##  4 Darth V…    202   136 none       white      yellow          41.9 male  mascu…
##  5 Leia Or…    150    49 brown      light      brown           19   fema… femin…
##  6 Owen La…    178   120 brown, gr… light      blue            52   male  mascu…
##  7 Beru Wh…    165    75 brown      light      blue            47   fema… femin…
##  8 R5-D4        97    32 <NA>       white, red red             NA   none  mascu…
##  9 Biggs D…    183    84 black      light      brown           24   male  mascu…
## 10 Obi-Wan…    182    77 auburn, w… fair       blue-gray       57   male  mascu…
## # ℹ 77 more rows
## # ℹ 5 more variables: homeworld <chr>, species <chr>, films <list>,
## #   vehicles <list>, starships <list>
```
…
<span style="color: #118306;">*Another tip for recurring data: we can
combine readr with **file.choose()**. This function allows to browse
your system and "prints" the path of any file. This way, running the
code allows to browse for a file and format it automatically.*

```         
data <- file.choose() %>% 
  read_delim(delim = ";", escape_double = FALSE, trim_ws = TRUE,
             skip = 2)

data

## # A tibble: 23 × 9
##    ID    Birthyear Birthday Height Weight `Shoe size` Gender Nationality Pets   
##    <chr>     <dbl> <chr>     <dbl>  <dbl>       <dbl> <chr>  <chr>       <chr>  
##  1 A-001      2000 31.08.      172     74          44 M      Austria     none   
##  2 A-002      2002 21.07.      160     60          38 F      Austria     cat    
##  3 B-003      1995 18.02.      168     70          42 M      Switzerland dog, c…
##  4 B-004      1966 03.05.      168     64          38 F      Germany     cat    
##  5 A-005      1975 18.07.      160     75          36 F      Austria     dog, c…
##  6 A-006      1998 21.10.      178     68          41 M      Germany     dog    
##  7 A-007      2022 13.08.       65     15          23 M      Switzerland dog, c…
##  8 B-008      1970 04.04.      182    102          43 M      Germany     dog, c…
##  9 A-009      1997 21.10.      165     60          37 F      Germany     cat, f…
## 10 B-010      1985 03.09.      155     89          39 F      Germany     fish   
## # ℹ 13 more rows
```
…
Let's separate our <span style="color: #339fff;">"*ID*"
***column***</span> by the common
<span style="color: #339fff;">***delimiter*** "-"</span> into two new
variables <span style="color: #339fff;">***named*** "Code" and
"Number"</span>:

```         
data %>% separate_wider_delim(cols=ID,
                              names=c("Code","Number"),
                              delim="-")

## # A tibble: 23 × 10
##    Code  Number Birthyear Birthday Height Weight `Shoe size` Gender Nationality
##    <chr> <chr>      <dbl> <chr>     <dbl>  <dbl>       <dbl> <chr>  <chr>      
##  1 A     001         2000 31.08.      172     74          44 M      Austria    
##  2 A     002         2002 21.07.      160     60          38 F      Austria    
##  3 B     003         1995 18.02.      168     70          42 M      Switzerland
##  4 B     004         1966 03.05.      168     64          38 F      Germany    
##  5 A     005         1975 18.07.      160     75          36 F      Austria    
##  6 A     006         1998 21.10.      178     68          41 M      Germany    
##  7 A     007         2022 13.08.       65     15          23 M      Switzerland
##  8 B     008         1970 04.04.      182    102          43 M      Germany    
##  9 A     009         1997 21.10.      165     60          37 F      Germany    
## 10 B     010         1985 03.09.      155     89          39 F      Germany    
## # ℹ 13 more rows
## # ℹ 1 more variable: Pets <chr>
```
…
Let's separate our <span style="color: #339fff;">"*Pets*"
***column***</span> by the common
<span style="color: #339fff;">***delimiter*** ","</span>:

```         
data %>% separate_wider_delim(cols=ID,
                              names=c("Code","Number"),
                              delim="-") %>%
  separate_longer_delim(cols=Pets,
                        delim=", ") %>% 
  relocate(Pets, .after="Number")

## # A tibble: 29 × 10
##    Code  Number Pets  Birthyear Birthday Height Weight `Shoe size` Gender
##    <chr> <chr>  <chr>     <dbl> <chr>     <dbl>  <dbl>       <dbl> <chr> 
##  1 A     001    none       2000 31.08.      172     74          44 M     
##  2 A     002    cat        2002 21.07.      160     60          38 F     
##  3 B     003    dog        1995 18.02.      168     70          42 M     
##  4 B     003    cat        1995 18.02.      168     70          42 M     
##  5 B     004    cat        1966 03.05.      168     64          38 F     
##  6 A     005    dog        1975 18.07.      160     75          36 F     
##  7 A     005    cat        1975 18.07.      160     75          36 F     
##  8 A     006    dog        1998 21.10.      178     68          41 M     
##  9 A     007    dog        2022 13.08.       65     15          23 M     
## 10 A     007    cat        2022 13.08.       65     15          23 M     
## # ℹ 19 more rows
## # ℹ 1 more variable: Nationality <chr>
```
…
Let's unite <span style="color: #339fff;">Birthday and Birthyear</span>
(in this order) <span style="color: #339fff;">**separated** by nothing
("")</span> into a new <span style="color: #339fff;">**column** named
"Born"</span>:

```         
data %>% separate_wider_delim(cols=ID,
                              names=c("Code","Number"),
                              delim="-") %>% 
  unite(col=Born,
        Birthday,Birthyear,
        sep="")

## # A tibble: 23 × 9
##    Code  Number Born       Height Weight `Shoe size` Gender Nationality Pets    
##    <chr> <chr>  <chr>       <dbl>  <dbl>       <dbl> <chr>  <chr>       <chr>   
##  1 A     001    31.08.2000    172     74          44 M      Austria     none    
##  2 A     002    21.07.2002    160     60          38 F      Austria     cat     
##  3 B     003    18.02.1995    168     70          42 M      Switzerland dog, cat
##  4 B     004    03.05.1966    168     64          38 F      Germany     cat     
##  5 A     005    18.07.1975    160     75          36 F      Austria     dog, cat
##  6 A     006    21.10.1998    178     68          41 M      Germany     dog     
##  7 A     007    13.08.2022     65     15          23 M      Switzerland dog, cat
##  8 B     008    04.04.1970    182    102          43 M      Germany     dog, cat
##  9 A     009    21.10.1997    165     60          37 F      Germany     cat, fi…
## 10 B     010    03.09.1985    155     89          39 F      Germany     fish    
## # ℹ 13 more rows
```
…
Let's start slowly: we want to have the "*Height*" variable in
**meters** instead of **centimeters**. We can modify
<span style="color: #339fff;">"*Height*", by dividing it by 100</span>:

```         
data %>% separate_wider_delim(cols=ID,
                              names=c("Code","Number"),
                              delim="-") %>% 
  unite(col=Born,
        Birthday,Birthyear,
        sep="") %>% 
  mutate(Height=Height/100)

## # A tibble: 23 × 9
##    Code  Number Born       Height Weight `Shoe size` Gender Nationality Pets    
##    <chr> <chr>  <chr>       <dbl>  <dbl>       <dbl> <chr>  <chr>       <chr>   
##  1 A     001    31.08.2000   1.72     74          44 M      Austria     none    
##  2 A     002    21.07.2002   1.6      60          38 F      Austria     cat     
##  3 B     003    18.02.1995   1.68     70          42 M      Switzerland dog, cat
##  4 B     004    03.05.1966   1.68     64          38 F      Germany     cat     
##  5 A     005    18.07.1975   1.6      75          36 F      Austria     dog, cat
##  6 A     006    21.10.1998   1.78     68          41 M      Germany     dog     
##  7 A     007    13.08.2022   0.65     15          23 M      Switzerland dog, cat
##  8 B     008    04.04.1970   1.82    102          43 M      Germany     dog, cat
##  9 A     009    21.10.1997   1.65     60          37 F      Germany     cat, fi…
## 10 B     010    03.09.1985   1.55     89          39 F      Germany     fish    
## # ℹ 13 more rows
```
…
```         
data %>% separate_wider_delim(cols=ID,
                              names=c("Code","Number"),
                              delim="-") %>% 
  unite(col=Born,
        Birthday,Birthyear,
        sep="") %>% 
  mutate(Height=Height/100,
         Born=dmy(Born))

## # A tibble: 23 × 9
##    Code  Number Born       Height Weight `Shoe size` Gender Nationality Pets    
##    <chr> <chr>  <date>      <dbl>  <dbl>       <dbl> <chr>  <chr>       <chr>   
##  1 A     001    2000-08-31   1.72     74          44 M      Austria     none    
##  2 A     002    2002-07-21   1.6      60          38 F      Austria     cat     
##  3 B     003    1995-02-18   1.68     70          42 M      Switzerland dog, cat
##  4 B     004    1966-05-03   1.68     64          38 F      Germany     cat     
##  5 A     005    1975-07-18   1.6      75          36 F      Austria     dog, cat
##  6 A     006    1998-10-21   1.78     68          41 M      Germany     dog     
##  7 A     007    2022-08-13   0.65     15          23 M      Switzerland dog, cat
##  8 B     008    1970-04-04   1.82    102          43 M      Germany     dog, cat
##  9 A     009    1997-10-21   1.65     60          37 F      Germany     cat, fi…
## 10 B     010    1985-09-03   1.55     89          39 F      Germany     fish    
## # ℹ 13 more rows
```
…
```         
data %>% separate_wider_delim(cols=ID,
                              names=c("Code","Number"),
                              delim="-") %>% 
  unite(col=Born,
        Birthday,Birthyear,
        sep="") %>% 
  mutate(Height=Height/100,
         Born=dmy(Born),
         Age=interval(Born,today()) %>% 
           as.period() %>% 
           year()) %>% 
  relocate(Age, .after=Born)

## # A tibble: 23 × 10
##    Code  Number Born         Age Height Weight `Shoe size` Gender Nationality
##    <chr> <chr>  <date>     <dbl>  <dbl>  <dbl>       <dbl> <chr>  <chr>      
##  1 A     001    2000-08-31    24   1.72     74          44 M      Austria    
##  2 A     002    2002-07-21    22   1.6      60          38 F      Austria    
##  3 B     003    1995-02-18    29   1.68     70          42 M      Switzerland
##  4 B     004    1966-05-03    58   1.68     64          38 F      Germany    
##  5 A     005    1975-07-18    49   1.6      75          36 F      Austria    
##  6 A     006    1998-10-21    25   1.78     68          41 M      Germany    
##  7 A     007    2022-08-13     2   0.65     15          23 M      Switzerland
##  8 B     008    1970-04-04    54   1.82    102          43 M      Germany    
##  9 A     009    1997-10-21    26   1.65     60          37 F      Germany    
## 10 B     010    1985-09-03    39   1.55     89          39 F      Germany    
## # ℹ 13 more rows
## # ℹ 1 more variable: Pets <chr>
```
…
data %>% separate_wider_delim(cols=ID,
                              names=c("Code","Number"),
                              delim="-") %>% 
  unite(col=Born,
        Birthday,Birthyear,
        sep="") %>% 
  mutate(Height=Height/100,
         Born=dmy(Born),
         Age=interval(Born,today()) %>% 
           as.period() %>% 
           year()) %>% 
  relocate(Age, .after=Born) %>% 
  arrange(desc(Age))

## # A tibble: 23 × 10
##    Code  Number Born         Age Height Weight `Shoe size` Gender Nationality
##    <chr> <chr>  <date>     <dbl>  <dbl>  <dbl>       <dbl> <chr>  <chr>      
##  1 B     023    1952-05-07    72   1.65     62          43 M      Germany    
##  2 B     004    1966-05-03    58   1.68     64          38 F      Germany    
##  3 B     008    1970-04-04    54   1.82    102          43 M      Germany    
##  4 A     005    1975-07-18    49   1.6      75          36 F      Austria    
##  5 B     017    1975-04-16    49   1.92     95          40 M      France     
##  6 B     018    1978-06-04    46   1.54     58          38 F      France     
##  7 B     010    1985-09-03    39   1.55     89          39 F      Germany    
##  8 B     011    1992-08-01    32   1.92     92          46 M      Germany    
##  9 B     003    1995-02-18    29   1.68     70          42 M      Switzerland
## 10 A     021    1995-09-11    29   1.42     50          35 F      Germany    
## # ℹ 13 more rows
## # ℹ 1 more variable: Pets <chr>
```
…
